RLTS Contacts
…
calvesSp %>% data.frame() %>%
  filter(WaterDistance <= CI_99) %>%
  arrange(calftag, DateTime) %>% # Order by time and ID
  mutate(Interval = DateTime - lag(DateTime)) %>% # Difference from previous 
  group_by(calftag) %>%
  mutate(Interval = replace(Interval, row_number() == 1, NA)) %>%
  ungroup(calftag) %>%
  mutate(Contact = ifelse(abs(Interval) >= (5*60) | is.na(Interval), 1:n(), NA)) %>% 
  do(zoo::na.locf(.))# Identify if contact was initiated

## # A tibble: 205 x 8
##    calftag time     date       DateTime                 geometry WaterDistance Interval Contact
##      <int> <chr>    <chr>      <dttm>                    <POINT>         <dbl>    <dbl>   <int>
##  1     101 00:47:43 05-02-2016 2016-05-02 00:47:43 (62.69 62.46)        0.539         8       1
##  2     101 00:47:47 05-02-2016 2016-05-02 00:47:47 (62.33 62.23)        0.112         4       1
##  3     101 00:47:59 05-02-2016 2016-05-02 00:47:59 (62.09 61.76)        0.0371       12       1
##  4     101 00:48:15 05-02-2016 2016-05-02 00:48:15 (61.11 61.84)        0.563        16       1
##  5     101 00:48:36 05-02-2016 2016-05-02 00:48:36 (62.55 62.53)        0.456        21       1
##  6     101 00:48:44 05-02-2016 2016-05-02 00:48:44 (62.38 62.57)        0.331         8       1
##  7     102 00:39:04 05-02-2016 2016-05-02 00:39:04 (62.69 61.87)        0.322         8       8
##  8     102 00:39:16 05-02-2016 2016-05-02 00:39:16 (61.88 62.89)        0.157        12       8
##  9     102 00:39:24 05-02-2016 2016-05-02 00:39:24 (62.05 63.23)        0.521         8       8
## 10     102 00:39:28 05-02-2016 2016-05-02 00:39:28 (62.77 62.31)        0.530         4       8
## # ... with 195 more rows
…
